Data/NEW_FOLD/TEK0016.CSV

Record Length,2.500000e+03,,  -0.020000000000,   0.00400,
Sample Interval,4.000000e-05,,  -0.019960000000,   0.00400,
Trigger Point,5.000000000000e+02,,  -0.019920000000,   0.00400,
,,,  -0.019880000000,   0.00400,
,,,  -0.019840000000,   0.00000,
,,,  -0.019800000000,   0.00000,
Source,CH1,,  -0.019760000000,   0.00400,
Vertical Units,V,,  -0.019720000000,   0.00000,
Vertical Scale,1.000000e-01,,  -0.019680000000,   0.00000,
Vertical Offset,2.000000e-01,,  -0.019640000000,   0.00400,
Horizontal Units,s,,  -0.019600000000,   0.00400,
Horizontal Scale,1.000000e-02,,  -0.019560000000,   0.00400,
Pt Fmt,Y,,  -0.019520000000,   0.00000,
Yzero,0.000000e+00,,  -0.019480000000,   0.00000,
Probe Atten,1.000000e+00,,  -0.019440000000,   0.00400,
Model Number,TDS1012B,,  -0.019400000000,   0.00400,
Serial Number,C052465,,  -0.019360000000,   0.00400,
Firmware Version,FV:v22.01,,  -0.019320000000,   0.00400,
,,,-00.019280000000,   0.00000,
,,,-00.019240000000,   0.00400,
,,,-00.019200000000,   0.00400,
,,,-00.019160000000,   0.00000,
,,,-00.019120000000,   0.00400,
,,,-00.019080000000,   0.00400,
,,,-00.019040000000,   0.00400,
,,,-00.019000000000,   0.00400,
,,,-00.018960000000,   0.00400,
,,,-00.018920000000,   0.00400,
,,,-00.018880000000,   0.00400,
,,,-00.018840000000,   0.00000,
,,,-00.018800000000,   0.00400,
,,,-00.018760000000,   0.00400,
,,,-00.018720000000,   0.00000,
,,,-00.018680000000,   0.00000,
,,,-00.018640000000,   0.00400,
,,,-00.018600000000,   0.00400,
,,,-00.018560000000,   0.00000,
,,,-00.018520000000,   0.00400,
,,,-00.018480000000,   0.00000,
,,,-00.018440000000,   0.00000,
,,,-00.018400000000,   0.00000,
,,,-00.018360000000,   0.00400,
,,,-00.018320000000,   0.00400,
,,,-00.018280000000,   0.00400,
,,,-00.018240000000,   0.00400,
,,,-00.018200000000,   0.00000,
,,,-00.018160000000,   0.00400,
,,,-00.018120000000,   0.00400,
,,,-00.018080000000,   0.00400,
,,,-00.018040000000,   0.00400,
,,,-00.018000000000,   0.00400,
,,,-00.017960000000,   0.00400,
,,,-00.017920000000,   0.00000,
,,,-00.017880000000,   0.00000,
,,,-00.017840000000,   0.00400,
,,,-00.017800000000,   0.00400,
,,,-00.017760000000,   0.00400,
,,,-00.017720000000,   0.00400,
,,,-00.017680000000,   0.00400,
,,,-00.017640000000,   0.00400,
,,,-00.017600000000,   0.00400,
,,,-00.017560000000,   0.00000,
,,,-00.017520000000,   0.00400,
,,,-00.017480000000,   0.00400,
,,,-00.017440000000,   0.00400,
,,,-00.017400000000,   0.00400,
,,,-00.017360000000,   0.00400,
,,,-00.017320000000,   0.00000,
,,,-00.017280000000,   0.00000,
,,,-00.017240000000,   0.00400,
,,,-00.017200000000,   0.00400,
,,,-00.017160000000,   0.00400,
,,,-00.017120000000,   0.00400,
,,,-00.017080000000,   0.00400,
,,,-00.017040000000,   0.00400,
,,,-00.017000000000,   0.00000,
,,,-00.016960000000,   0.00000,
,,,-00.016920000000,   0.00400,
,,,-00.016880000000,   0.00400,
,,,-00.016840000000,   0.00400,
,,,-00.016800000000,   0.00400,
,,,-00.016760000000,   0.00400,
,,,-00.016720000000,   0.00400,
,,,-00.016680000000,   0.00400,
,,,-00.016640000000,   0.00400,
,,,-00.016600000000,   0.00400,
,,,-00.016560000000,   0.00400,
,,,-00.016520000000,   0.00400,
,,,-00.016480000000,   0.00000,
,,,-00.016440000000,   0.00400,
,,,-00.016400000000,   0.00400,
,,,-00.016360000000,   0.00400,
,,,-00.016320000000,   0.00400,
,,,-00.016280000000,   0.00400,
,,,-00.016240000000,   0.00400,
,,,-00.016200000000,   0.00400,
,,,-00.016160000000,   0.00400,
,,,-00.016120000000,   0.00400,
,,,-00.016080000000,   0.00400,
,,,-00.016040000000,   0.00400,
,,,-00.016000000000,   0.00400,
,,,-00.015960000000,   0.00000,
,,,-00.015920000000,   0.00400,
,,,-00.015880000000,   0.00400,
,,,-00.015840000000,   0.00400,
,,,-00.015800000000,   0.00000,
,,,-00.015760000000,   0.00400,
,,,-00.015720000000,   0.00400,
,,,-00.015680000000,   0.00000,
,,,-00.015640000000,   0.00000,
,,,-00.015600000000,   0.00400,
,,,-00.015560000000,   0.00400,
,,,-00.015520000000,   0.00400,
,,,-00.015480000000,   0.00400,
,,,-00.015440000000,   0.00400,
,,,-00.015400000000,   0.00000,
,,,-00.015360000000,   0.00400,
,,,-00.015320000000,   0.00400,
,,,-00.015280000000,   0.00400,
,,,-00.015240000000,   0.00400,
,,,-00.015200000000,   0.00400,
,,,-00.015160000000,   0.00000,
,,,-00.015120000000,   0.00400,
,,,-00.015080000000,   0.00400,
,,,-00.015040000000,   0.00400,
,,,-00.015000000000,   0.00400,
,,,-00.014960000000,   0.00400,
,,,-00.014920000000,   0.00400,
,,,-00.014880000000,   0.00400,
,,,-00.014840000000,   0.00400,
,,,-00.014800000000,   0.00400,
,,,-00.014760000000,   0.00000,
,,,-00.014720000000,   0.00000,
,,,-00.014680000000,   0.00400,
,,,-00.014640000000,   0.00000,
,,,-00.014600000000,   0.00400,
,,,-00.014560000000,   0.00400,
,,,-00.014520000000,   0.00400,
,,,-00.014480000000,   0.00400,
,,,-00.014440000000,   0.00400,
,,,-00.014400000000,   0.00000,
,,,-00.014360000000,   0.00400,
,,,-00.014320000000,   0.00400,
,,,-00.014280000000,   0.00400,
,,,-00.014240000000,   0.00400,
,,,-00.014200000000,   0.00400,
,,,-00.014160000000,   0.00400,
,,,-00.014120000000,   0.00400,
,,,-00.014080000000,   0.00400,
,,,-00.014040000000,   0.00000,
,,,-00.014000000000,   0.00400,
,,,-00.013960000000,   0.00400,
,,,-00.013920000000,   0.00000,
,,,-00.013880000000,   0.00400,
,,,-00.013840000000,   0.00400,
,,,-00.013800000000,   0.00400,
,,,-00.013760000000,   0.00400,
,,,-00.013720000000,   0.00400,
,,,-00.013680000000,   0.00400,
,,,-00.013640000000,   0.00400,
,,,-00.013600000000,   0.00400,
,,,-00.013560000000,   0.00400,
,,,-00.013520000000,   0.00400,
,,,-00.013480000000,   0.00400,
,,,-00.013440000000,   0.00400,
,,,-00.013400000000,   0.00400,
,,,-00.013360000000,   0.00400,
,,,-00.013320000000,   0.00400,
,,,-00.013280000000,   0.00400,
,,,-00.013240000000,   0.00000,
,,,-00.013200000000,   0.00400,
,,,-00.013160000000,   0.00400,
,,,-00.013120000000,   0.00000,
,,,-00.013080000000,   0.00400,
,,,-00.013040000000,   0.00400,
,,,-00.013000000000,   0.00000,
,,,-00.012960000000,   0.00400,
,,,-00.012920000000,   0.00400,
,,,-00.012880000000,   0.00400,
,,,-00.012840000000,   0.00400,
,,,-00.012800000000,   0.00400,
,,,-00.012760000000,   0.00400,
,,,-00.012720000000,   0.00400,
,,,-00.012680000000,   0.00400,
,,,-00.012640000000,   0.00400,
,,,-00.012600000000,   0.00400,
,,,-00.012560000000,   0.00400,
,,,-00.012520000000,   0.00400,
,,,-00.012480000000,   0.00400,
,,,-00.012440000000,   0.00400,
,,,-00.012400000000,   0.00400,
,,,-00.012360000000,   0.00400,
,,,-00.012320000000,   0.00400,
,,,-00.012280000000,   0.00400,
,,,-00.012240000000,   0.00400,
,,,-00.012200000000,   0.00400,
,,,-00.012160000000,   0.00400,
,,,-00.012120000000,   0.00400,
,,,-00.012080000000,   0.00400,
,,,-00.012040000000,   0.00400,
,,,-00.012000000000,   0.00400,
,,,-00.011960000000,   0.00400,
,,,-00.011920000000,   0.00400,
,,,-00.011880000000,   0.00400,
,,,-00.011840000000,   0.00400,
,,,-00.011800000000,   0.00000,
,,,-00.011760000000,   0.00000,
,,,-00.011720000000,   0.00400,
,,,-00.011680000000,   0.00400,
,,,-00.011640000000,   0.00400,
,,,-00.011600000000,   0.00400,
,,,-00.011560000000,   0.00400,
,,,-00.011520000000,   0.00000,
,,,-00.011480000000,   0.00400,
,,,-00.011440000000,   0.00400,
,,,-00.011400000000,   0.00400,
,,,-00.011360000000,   0.00400,
,,,-00.011320000000,   0.00400,
,,,-00.011280000000,   0.00400,
,,,-00.011240000000,   0.00400,
,,,-00.011200000000,   0.00400,
,,,-00.011160000000,   0.00000,
,,,-00.011120000000,   0.00400,
,,,-00.011080000000,   0.00400,
,,,-00.011040000000,   0.00400,
,,,-00.011000000000,   0.00400,
,,,-00.010960000000,   0.00400,
,,,-00.010920000000,   0.00400,
,,,-00.010880000000,   0.00400,
,,,-00.010840000000,   0.00400,
,,,-00.010800000000,   0.00400,
,,,-00.010760000000,   0.00400,
,,,-00.010720000000,   0.00400,
,,,-00.010680000000,   0.00400,
,,,-00.010640000000,   0.00400,
,,,-00.010600000000,   0.00400,
,,,-00.010560000000,   0.00000,
,,,-00.010520000000,   0.00400,
,,,-00.010480000000,   0.00400,
,,,-00.010440000000,   0.00400,
,,,-00.010400000000,   0.00400,
,,,-00.010360000000,   0.00400,
,,,-00.010320000000,   0.00000,
,,,-00.010280000000,   0.00400,
,,,-00.010240000000,   0.00400,
,,,-00.010200000000,   0.00000,
,,,-00.010160000000,   0.00000,
,,,-00.010120000000,   0.00400,
,,,-00.010080000000,   0.00000,
,,,-00.010040000000,   0.00400,
,,,-00.010000000000,   0.00400,
,,,-00.009960000000,   0.00400,
,,,-00.009920000000,   0.00400,
,,,-00.009880000000,   0.00000,
,,,-00.009840000000,   0.00400,
,,,-00.009800000000,   0.00400,
,,,-00.009760000000,   0.00400,
,,,-00.009720000000,   0.00400,
,,,-00.009680000000,   0.00400,
,,,-00.009640000000,   0.00400,
,,,-00.009600000000,   0.00400,
,,,-00.009560000000,   0.00400,
,,,-00.009520000000,   0.00000,
,,,-00.009480000000,   0.00400,
,,,-00.009440000000,   0.00400,
,,,-00.009400000000,   0.00400,
,,,-00.009360000000,   0.00400,
,,,-00.009320000000,   0.00400,
,,,-00.009280000000,   0.00400,
,,,-00.009240000000,   0.00400,
,,,-00.009200000000,   0.00000,
,,,-00.009160000000,   0.00400,
,,,-00.009120000000,   0.00000,
,,,-00.009080000000,   0.00400,
,,,-00.009040000000,   0.00400,
,,,-00.009000000000,   0.00000,
,,,-00.008960000000,   0.00400,
,,,-00.008920000000,   0.00400,
,,,-00.008880000000,   0.00400,
,,,-00.008840000000,   0.00400,
,,,-00.008800000000,   0.00400,
,,,-00.008760000000,   0.00400,
,,,-00.008720000000,   0.00400,
,,,-00.008680000000,   0.00000,
,,,-00.008640000000,   0.00400,
,,,-00.008600000000,   0.00400,
,,,-00.008560000000,   0.00400,
,,,-00.008520000000,   0.00400,
,,,-00.008480000000,   0.00400,
,,,-00.008440000000,   0.00400,
,,,-00.008400000000,   0.00400,
,,,-00.008360000000,   0.00400,
,,,-00.008320000000,   0.00400,
,,,-00.008280000000,   0.00400,
,,,-00.008240000000,   0.00000,
,,,-00.008200000000,   0.00400,
,,,-00.008160000000,   0.00400,
,,,-00.008120000000,   0.00400,
,,,-00.008080000000,   0.00000,
,,,-00.008040000000,   0.00400,
,,,-00.008000000000,   0.00400,
,,,-00.007960000000,   0.00000,
,,,-00.007920000000,   0.00000,
,,,-00.007880000000,   0.00000,
,,,-00.007840000000,   0.00400,
,,,-00.007800000000,   0.00400,
,,,-00.007760000000,   0.00400,
,,,-00.007720000000,   0.00400,
,,,-00.007680000000,   0.00400,
,,,-00.007640000000,   0.00400,
,,,-00.007600000000,   0.00400,
,,,-00.007560000000,   0.00400,
,,,-00.007520000000,   0.00400,
,,,-00.007480000000,   0.00400,
,,,-00.007440000000,   0.00000,
,,,-00.007400000000,   0.00400,
,,,-00.007360000000,   0.00400,
,,,-00.007320000000,   0.00400,
,,,-00.007280000000,   0.00400,
,,,-00.007240000000,   0.00400,
,,,-00.007200000000,   0.00400,
,,,-00.007160000000,   0.00400,
,,,-00.007120000000,   0.00400,
,,,-00.007080000000,   0.00400,
,,,-00.007040000000,   0.00400,
,,,-00.007000000000,   0.00000,
,,,-00.006960000000,   0.00400,
,,,-00.006920000000,   0.00400,
,,,-00.006880000000,   0.00400,
,,,-00.006840000000,   0.00400,
,,,-00.006800000000,   0.00400,
,,,-00.006760000000,   0.00400,
,,,-00.006720000000,   0.00400,
,,,-00.006680000000,   0.00000,
,,,-00.006640000000,   0.00400,
,,,-00.006600000000,   0.00400,
,,,-00.006560000000,   0.00400,
,,,-00.006520000000,   0.00000,
,,,-00.006480000000,   0.00400,
,,,-00.006440000000,   0.00000,
,,,-00.006400000000,   0.00400,
,,,-00.006360000000,   0.00400,
,,,-00.006320000000,   0.00400,
,,,-00.006280000000,   0.00400,
,,,-00.006240000000,   0.00400,
,,,-00.006200000000,   0.00400,
,,,-00.006160000000,   0.00400,
,,,-00.006120000000,   0.00000,
,,,-00.006080000000,   0.00000,
,,,-00.006040000000,   0.00400,
,,,-00.006000000000,   0.00400,
,,,-00.005960000000,   0.00400,
,,,-00.005920000000,   0.00400,
,,,-00.005880000000,   0.00400,
,,,-00.005840000000,   0.00400,
,,,-00.005800000000,   0.00400,
,,,-00.005760000000,   0.00000,
,,,-00.005720000000,   0.00000,
,,,-00.005680000000,   0.00400,
,,,-00.005640000000,   0.00000,
,,,-00.005600000000,   0.00400,
,,,-00.005560000000,   0.00400,
,,,-00.005520000000,   0.00400,
,,,-00.005480000000,   0.00400,
,,,-00.005440000000,   0.00400,
,,,-00.005400000000,   0.00000,
,,,-00.005360000000,   0.00400,
,,,-00.005320000000,   0.00400,
,,,-00.005280000000,   0.00400,
,,,-00.005240000000,   0.00400,
,,,-00.005200000000,   0.00400,
,,,-00.005160000000,   0.00400,
,,,-00.005120000000,   0.00400,
,,,-00.005080000000,   0.00400,
,,,-00.005040000000,   0.00400,
,,,-00.005000000000,   0.00400,
,,,-00.004960000000,   0.00400,
,,,-00.004920000000,   0.00400,
,,,-00.004880000000,   0.00000,
,,,-00.004840000000,   0.00400,
,,,-00.004800000000,   0.00000,
,,,-00.004760000000,   0.00400,
,,,-00.004720000000,   0.00000,
,,,-00.004680000000,   0.00400,
,,,-00.004640000000,   0.00000,
,,,-00.004600000000,   0.00000,
,,,-00.004560000000,   0.00000,
,,,-00.004520000000,   0.00400,
,,,-00.004480000000,   0.00400,
,,,-00.004440000000,   0.00000,
,,,-00.004400000000,   0.00400,
,,,-00.004360000000,   0.00400,
,,,-00.004320000000,   0.00400,
,,,-00.004280000000,   0.00400,
,,,-00.004240000000,   0.00400,
,,,-00.004200000000,   0.00400,
,,,-00.004160000000,   0.00000,
,,,-00.004120000000,   0.00400,
,,,-00.004080000000,   0.00400,
,,,-00.004040000000,   0.00400,
,,,-00.004000000000,   0.00000,
,,,-00.003960000000,   0.00400,
,,,-00.003920000000,   0.00400,
,,,-00.003880000000,   0.00400,
,,,-00.003840000000,   0.00400,
,,,-00.003800000000,   0.00000,
,,,-00.003760000000,   0.00400,
,,,-00.003720000000,   0.00400,
,,,-00.003680000000,   0.00400,
,,,-00.003640000000,   0.00000,
,,,-00.003600000000,   0.00000,
,,,-00.003560000000,   0.00400,
,,,-00.003520000000,   0.00400,
,,,-00.003480000000,   0.00400,
,,,-00.003440000000,   0.00400,
,,,-00.003400000000,   0.00400,
,,,-00.003360000000,   0.00400,
,,,-00.003320000000,   0.00400,
,,,-00.003280000000,   0.00400,
,,,-00.003240000000,   0.00400,
,,,-00.003200000000,   0.00400,
,,,-00.003160000000,   0.00400,
,,,-00.003120000000,   0.00400,
,,,-00.003080000000,   0.00400,
,,,-00.003040000000,   0.00400,
,,,-00.003000000000,   0.00000,
,,,-00.002960000000,   0.00400,
,,,-00.002920000000,   0.00400,
,,,-00.002880000000,   0.00400,
,,,-00.002840000000,   0.00400,
,,,-00.002800000000,   0.00400,
,,,-00.002760000000,   0.00400,
,,,-00.002720000000,   0.00400,
,,,-00.002680000000,   0.00400,
,,,-00.002640000000,   0.00400,
,,,-00.002600000000,   0.00400,
,,,-00.002560000000,   0.00400,
,,,-00.002520000000,   0.00400,
,,,-00.002480000000,   0.00400,
,,,-00.002440000000,   0.00400,
,,,-00.002400000000,   0.00400,
,,,-00.002360000000,   0.00400,
,,,-00.002320000000,   0.00400,
,,,-00.002280000000,   0.00400,
,,,-00.002240000000,   0.00400,
,,,-00.002200000000,   0.00800,
,,,-00.002160000000,   0.00400,
,,,-00.002120000000,   0.00800,
,,,-00.002080000000,   0.00800,
,,,-00.002040000000,   0.00800,
,,,-00.002000000000,   0.01200,
,,,-00.001960000000,   0.01200,
,,,-00.001920000000,   0.01600,
,,,-00.001880000000,   0.02000,
,,,-00.001840000000,   0.02000,
,,,-00.001800000000,   0.02800,
,,,-00.001760000000,   0.03200,
,,,-00.001720000000,   0.03600,
,,,-00.001680000000,   0.04000,
,,,-00.001640000000,   0.04400,
,,,-00.001600000000,   0.04800,
,,,-00.001560000000,   0.04800,
,,,-00.001520000000,   0.05200,
,,,-00.001480000000,   0.05600,
,,,-00.001440000000,   0.05200,
,,,-00.001400000000,   0.05200,
,,,-00.001360000000,   0.04400,
,,,-00.001320000000,   0.03600,
,,,-00.001280000000,   0.03200,
,,,-00.001240000000,   0.01600,
,,,-00.001200000000,   0.00400,
,,,-00.001160000000,  -0.01200,
,,,-00.001120000000,  -0.02800,
,,,-00.001080000000,  -0.04400,
,,,-00.001040000000,  -0.06400,
,,,-00.001000000000,  -0.08400,
,,,-00.000960000000,  -0.10000,
,,,-00.000920000000,  -0.11600,
,,,-00.000880000000,  -0.12800,
,,,-00.000840000000,  -0.14000,
,,,-00.000800000000,  -0.15200,
,,,-00.000760000000,  -0.15600,
,,,-00.000720000000,  -0.16000,
,,,-00.000680000000,  -0.16000,
,,,-00.000640000000,  -0.15600,
,,,-00.000600000000,  -0.14800,
,,,-00.000560000000,  -0.14400,
,,,-00.000520000000,  -0.13200,
,,,-00.000480000000,  -0.12000,
,,,-00.000440000000,  -0.10800,
,,,-00.000400000000,  -0.10000,
,,,-00.000360000000,  -0.08400,
,,,-00.000320000000,  -0.06800,
,,,-00.000280000000,  -0.04800,
,,,-00.000240000000,  -0.03200,
,,,-00.000200000000,  -0.01200,
,,,-00.000160000000,   0.00400,
,,,-00.000120000000,   0.02000,
,,,-00.000080000000,   0.03600,
,,,-00.000040000000,   0.05200,
,,,-00.000000000000,   0.06400,
,,,00.000040000000,   0.08000,
,,,00.000080000000,   0.09200,
,,,00.000120000000,   0.10400,
,,,00.000160000000,   0.11600,
,,,00.000200000000,   0.12400,
,,,00.000240000000,   0.13200,
,,,00.000280000000,   0.14000,
,,,00.000320000000,   0.15200,
,,,00.000360000000,   0.15600,
,,,00.000400000000,   0.16000,
,,,00.000440000000,   0.16400,
,,,00.000480000000,   0.16800,
,,,00.000520000000,   0.16800,
,,,00.000560000000,   0.16800,
,,,00.000600000000,   0.16400,
,,,00.000640000000,   0.16000,
,,,00.000680000000,   0.15200,
,,,00.000720000000,   0.14800,
,,,00.000760000000,   0.14000,
,,,00.000800000000,   0.12800,
,,,00.000840000000,   0.11200,
,,,00.000880000000,   0.09600,
,,,00.000920000000,   0.08000,
,,,00.000960000000,   0.06000,
,,,00.001000000000,   0.04400,
,,,00.001040000000,   0.02000,
,,,00.001080000000,   0.00000,
,,,00.001120000000,  -0.02000,
,,,00.001160000000,  -0.04000,
,,,00.001200000000,  -0.06000,
,,,00.001240000000,  -0.07600,
,,,00.001280000000,  -0.09200,
,,,00.001320000000,  -0.10400,
,,,00.001360000000,  -0.11600,
,,,00.001400000000,  -0.12400,
,,,00.001440000000,  -0.12800,
,,,00.001480000000,  -0.12800,
,,,00.001520000000,  -0.12400,
,,,00.001560000000,  -0.11600,
,,,00.001600000000,  -0.10800,
,,,00.001640000000,  -0.10000,
,,,00.001680000000,  -0.08800,
,,,00.001720000000,  -0.07600,
,,,00.001760000000,  -0.06000,
,,,00.001800000000,  -0.04800,
,,,00.001840000000,  -0.03600,
,,,00.001880000000,  -0.02000,
,,,00.001920000000,  -0.01200,
,,,00.001960000000,  -0.00400,
,,,00.002000000000,   0.00400,
,,,00.002040000000,   0.01600,
,,,00.002080000000,   0.02000,
,,,00.002120000000,   0.02400,
,,,00.002160000000,   0.03600,
,,,00.002200000000,   0.03600,
,,,00.002240000000,   0.04400,
,,,00.002280000000,   0.04800,
,,,00.002320000000,   0.05600,
,,,00.002360000000,   0.05600,
,,,00.002400000000,   0.06000,
,,,00.002440000000,   0.06400,
,,,00.002480000000,   0.06400,
,,,00.002520000000,   0.06800,
,,,00.002560000000,   0.06400,
,,,00.002600000000,   0.06400,
,,,00.002640000000,   0.06400,
,,,00.002680000000,   0.05600,
,,,00.002720000000,   0.06000,
,,,00.002760000000,   0.05600,
,,,00.002800000000,   0.05200,
,,,00.002840000000,   0.04400,
,,,00.002880000000,   0.04400,
,,,00.002920000000,   0.04000,
,,,00.002960000000,   0.04000,
,,,00.003000000000,   0.03600,
,,,00.003040000000,   0.03200,
,,,00.003080000000,   0.02800,
,,,00.003120000000,   0.02000,
,,,00.003160000000,   0.01600,
,,,00.003200000000,   0.00400,
,,,00.003240000000,  -0.00400,
,,,00.003280000000,  -0.00800,
,,,00.003320000000,  -0.01600,
,,,00.003360000000,  -0.02800,
,,,00.003400000000,  -0.03600,
,,,00.003440000000,  -0.04000,
,,,00.003480000000,  -0.04800,
,,,00.003520000000,  -0.06000,
,,,00.003560000000,  -0.06800,
,,,00.003600000000,  -0.07600,
,,,00.003640000000,  -0.08400,
,,,00.003680000000,  -0.09200,
,,,00.003720000000,  -0.09600,
,,,00.003760000000,  -0.10400,
,,,00.003800000000,  -0.10800,
,,,00.003840000000,  -0.11200,
,,,00.003880000000,  -0.11200,
,,,00.003920000000,  -0.11600,
,,,00.003960000000,  -0.11600,
,,,00.004000000000,  -0.11200,
,,,00.004040000000,  -0.11200,
,,,00.004080000000,  -0.10800,
,,,00.004120000000,  -0.10000,
,,,00.004160000000,  -0.09200,
,,,00.004200000000,  -0.08000,
,,,00.004240000000,  -0.06800,
,,,00.004280000000,  -0.05200,
,,,00.004320000000,  -0.03600,
,,,00.004360000000,  -0.02000,
,,,00.004400000000,   0.00000,
,,,00.004440000000,   0.01600,
,,,00.004480000000,   0.03600,
,,,00.004520000000,   0.04800,
,,,00.004560000000,   0.07200,
,,,00.004600000000,   0.08400,
,,,00.004640000000,   0.10000,
,,,00.004680000000,   0.11600,
