Data/NEW_FOLB/TEK0003.CSV

Record Length,2.500000e+03,,  -0.050000000000,   0.00000,
Sample Interval,2.000000e-04,,  -0.049800000000,  -0.00800,
Trigger Point,2.500000000000e+02,,  -0.049600000000,   0.00000,
,,,  -0.049400000000,   0.00000,
,,,  -0.049200000000,   0.00000,
,,,  -0.049000000000,  -0.00800,
Source,CH2,,  -0.048800000000,  -0.00800,
Vertical Units,V,,  -0.048600000000,  -0.00800,
Vertical Scale,2.000000e-01,,  -0.048400000000,   0.00000,
Vertical Offset,-4.000000e-01,,  -0.048200000000,   0.00000,
Horizontal Units,s,,  -0.048000000000,   0.00000,
Horizontal Scale,5.000000e-02,,  -0.047800000000,  -0.00800,
Pt Fmt,Y,,  -0.047600000000,  -0.00800,
Yzero,0.000000e+00,,  -0.047400000000,  -0.00800,
Probe Atten,1.000000e+00,,  -0.047200000000,  -0.00800,
Model Number,TDS1012B,,  -0.047000000000,  -0.00800,
Serial Number,C054010,,  -0.046800000000,   0.00000,
Firmware Version,FV:v22.01,,  -0.046600000000,  -0.00800,
,,,-00.046400000000,  -0.00800,
,,,-00.046200000000,   0.00000,
,,,-00.046000000000,   0.00000,
,,,-00.045800000000,  -0.00800,
,,,-00.045600000000,  -0.00800,
,,,-00.045400000000,  -0.00800,
,,,-00.045200000000,   0.00000,
,,,-00.045000000000,  -0.00800,
,,,-00.044800000000,  -0.00800,
,,,-00.044600000000,  -0.00800,
,,,-00.044400000000,   0.00000,
,,,-00.044200000000,   0.00000,
,,,-00.044000000000,  -0.00800,
,,,-00.043800000000,   0.00000,
,,,-00.043600000000,   0.00000,
,,,-00.043400000000,   0.00000,
,,,-00.043200000000,   0.00000,
,,,-00.043000000000,   0.00000,
,,,-00.042800000000,   0.00000,
,,,-00.042600000000,   0.00000,
,,,-00.042400000000,   0.00000,
,,,-00.042200000000,   0.00000,
,,,-00.042000000000,   0.00000,
,,,-00.041800000000,   0.00000,
,,,-00.041600000000,   0.00000,
,,,-00.041400000000,   0.00000,
,,,-00.041200000000,  -0.00800,
,,,-00.041000000000,  -0.00800,
,,,-00.040800000000,   0.00000,
,,,-00.040600000000,  -0.00800,
,,,-00.040400000000,   0.00000,
,,,-00.040200000000,   0.00000,
,,,-00.040000000000,   0.00000,
,,,-00.039800000000,   0.00000,
,,,-00.039600000000,   0.00000,
,,,-00.039400000000,   0.00000,
,,,-00.039200000000,   0.00000,
,,,-00.039000000000,   0.00000,
,,,-00.038800000000,   0.00000,
,,,-00.038600000000,   0.00000,
,,,-00.038400000000,   0.00000,
,,,-00.038200000000,   0.00000,
,,,-00.038000000000,   0.00000,
,,,-00.037800000000,   0.00000,
,,,-00.037600000000,   0.00000,
,,,-00.037400000000,   0.00000,
,,,-00.037200000000,   0.00000,
,,,-00.037000000000,   0.00000,
,,,-00.036800000000,   0.00000,
,,,-00.036600000000,   0.00000,
,,,-00.036400000000,   0.00000,
,,,-00.036200000000,   0.00000,
,,,-00.036000000000,   0.00000,
,,,-00.035800000000,   0.00000,
,,,-00.035600000000,   0.00000,
,,,-00.035400000000,   0.00000,
,,,-00.035200000000,   0.00000,
,,,-00.035000000000,   0.00000,
,,,-00.034800000000,   0.00000,
,,,-00.034600000000,   0.00000,
,,,-00.034400000000,   0.00800,
,,,-00.034200000000,   0.00000,
,,,-00.034000000000,   0.00000,
,,,-00.033800000000,   0.00000,
,,,-00.033600000000,   0.00000,
,,,-00.033400000000,   0.00000,
,,,-00.033200000000,   0.00000,
,,,-00.033000000000,   0.00000,
,,,-00.032800000000,   0.00000,
,,,-00.032600000000,   0.00000,
,,,-00.032400000000,   0.00000,
,,,-00.032200000000,   0.00000,
,,,-00.032000000000,   0.00000,
,,,-00.031800000000,   0.00000,
,,,-00.031600000000,   0.00000,
,,,-00.031400000000,   0.00000,
,,,-00.031200000000,   0.00800,
,,,-00.031000000000,   0.00000,
,,,-00.030800000000,   0.00000,
,,,-00.030600000000,   0.00000,
,,,-00.030400000000,   0.00000,
,,,-00.030200000000,   0.00800,
,,,-00.030000000000,   0.00000,
,,,-00.029800000000,   0.00000,
,,,-00.029600000000,   0.00000,
,,,-00.029400000000,   0.00000,
,,,-00.029200000000,   0.00000,
,,,-00.029000000000,   0.00000,
,,,-00.028800000000,   0.00000,
,,,-00.028600000000,   0.00000,
,,,-00.028400000000,   0.00000,
,,,-00.028200000000,   0.00000,
,,,-00.028000000000,   0.00000,
,,,-00.027800000000,   0.00000,
,,,-00.027600000000,   0.00000,
,,,-00.027400000000,   0.00000,
,,,-00.027200000000,   0.00000,
,,,-00.027000000000,   0.00000,
,,,-00.026800000000,   0.00000,
,,,-00.026600000000,   0.00000,
,,,-00.026400000000,   0.00000,
,,,-00.026200000000,   0.00000,
,,,-00.026000000000,   0.00000,
,,,-00.025800000000,   0.00000,
,,,-00.025600000000,   0.00000,
,,,-00.025400000000,   0.00000,
,,,-00.025200000000,   0.00000,
,,,-00.025000000000,   0.00000,
,,,-00.024800000000,   0.00000,
,,,-00.024600000000,   0.00000,
,,,-00.024400000000,   0.00000,
,,,-00.024200000000,   0.00000,
,,,-00.024000000000,   0.00000,
,,,-00.023800000000,   0.00000,
,,,-00.023600000000,   0.00000,
,,,-00.023400000000,   0.00000,
,,,-00.023200000000,   0.00000,
,,,-00.023000000000,   0.00000,
,,,-00.022800000000,   0.00000,
,,,-00.022600000000,   0.00000,
,,,-00.022400000000,   0.00000,
,,,-00.022200000000,   0.00000,
,,,-00.022000000000,   0.00000,
,,,-00.021800000000,   0.00000,
,,,-00.021600000000,   0.00000,
,,,-00.021400000000,   0.00000,
,,,-00.021200000000,   0.00000,
,,,-00.021000000000,   0.00000,
,,,-00.020800000000,   0.00000,
,,,-00.020600000000,   0.00000,
,,,-00.020400000000,   0.00000,
,,,-00.020200000000,   0.00000,
,,,-00.020000000000,   0.00000,
,,,-00.019800000000,   0.00000,
,,,-00.019600000000,   0.00000,
,,,-00.019400000000,   0.00000,
,,,-00.019200000000,   0.00000,
,,,-00.019000000000,   0.00000,
,,,-00.018800000000,   0.00000,
,,,-00.018600000000,   0.00000,
,,,-00.018400000000,   0.00000,
,,,-00.018200000000,   0.00000,
,,,-00.018000000000,   0.00000,
,,,-00.017800000000,   0.00000,
,,,-00.017600000000,   0.00000,
,,,-00.017400000000,   0.00000,
,,,-00.017200000000,   0.00000,
,,,-00.017000000000,   0.00000,
,,,-00.016800000000,   0.00000,
,,,-00.016600000000,   0.00000,
,,,-00.016400000000,   0.00000,
,,,-00.016200000000,   0.00000,
,,,-00.016000000000,   0.00000,
,,,-00.015800000000,  -0.00800,
,,,-00.015600000000,   0.00000,
,,,-00.015400000000,   0.00000,
,,,-00.015200000000,  -0.00800,
,,,-00.015000000000,   0.00000,
,,,-00.014800000000,  -0.00800,
,,,-00.014600000000,  -0.00800,
,,,-00.014400000000,  -0.00800,
,,,-00.014200000000,   0.00000,
,,,-00.014000000000,   0.00000,
,,,-00.013800000000,  -0.00800,
,,,-00.013600000000,  -0.00800,
,,,-00.013400000000,   0.00000,
,,,-00.013200000000,  -0.00800,
,,,-00.013000000000,   0.00000,
,,,-00.012800000000,   0.00000,
,,,-00.012600000000,   0.00000,
,,,-00.012400000000,   0.00000,
,,,-00.012200000000,   0.00000,
,,,-00.012000000000,   0.00000,
,,,-00.011800000000,   0.00000,
,,,-00.011600000000,   0.00000,
,,,-00.011400000000,   0.00000,
,,,-00.011200000000,   0.00000,
,,,-00.011000000000,   0.00000,
,,,-00.010800000000,   0.00000,
,,,-00.010600000000,   0.00000,
,,,-00.010400000000,   0.00000,
,,,-00.010200000000,   0.00000,
,,,-00.010000000000,   0.00000,
,,,-00.009800000000,   0.00000,
,,,-00.009600000000,   0.00000,
,,,-00.009400000000,   0.00000,
,,,-00.009200000000,  -0.00800,
,,,-00.009000000000,   0.00000,
,,,-00.008800000000,   0.00000,
,,,-00.008600000000,   0.00000,
,,,-00.008400000000,   0.00000,
,,,-00.008200000000,   0.00000,
,,,-00.008000000000,   0.00000,
,,,-00.007800000000,   0.00000,
,,,-00.007600000000,   0.00000,
,,,-00.007400000000,   0.00000,
,,,-00.007200000000,   0.00000,
,,,-00.007000000000,   0.00000,
,,,-00.006800000000,  -0.00800,
,,,-00.006600000000,  -0.00800,
,,,-00.006400000000,   0.00000,
,,,-00.006200000000,   0.00000,
,,,-00.006000000000,   0.00000,
,,,-00.005800000000,   0.00000,
,,,-00.005600000000,   0.00000,
,,,-00.005400000000,   0.00000,
,,,-00.005200000000,   0.00000,
,,,-00.005000000000,   0.00000,
,,,-00.004800000000,   0.00000,
,,,-00.004600000000,   0.00000,
,,,-00.004400000000,  -0.00800,
,,,-00.004200000000,  -0.00800,
,,,-00.004000000000,  -0.00800,
,,,-00.003800000000,  -0.00800,
,,,-00.003600000000,  -0.00800,
,,,-00.003400000000,  -0.00800,
,,,-00.003200000000,  -0.00800,
,,,-00.003000000000,  -0.00800,
,,,-00.002800000000,  -0.00800,
,,,-00.002600000000,  -0.00800,
,,,-00.002400000000,  -0.00800,
,,,-00.002200000000,  -0.00800,
,,,-00.002000000000,  -0.00800,
,,,-00.001800000000,   0.00000,
,,,-00.001600000000,   0.00000,
,,,-00.001400000000,   0.00000,
,,,-00.001200000000,   0.00800,
,,,-00.001000000000,  -0.00800,
,,,-00.000800000000,  -0.02400,
,,,-00.000600000000,  -0.04000,
,,,-00.000400000000,  -0.03200,
,,,-00.000200000000,   0.00800,
,,,-00.000000000000,   0.05600,
,,,00.000200000000,   0.09600,
,,,00.000400000000,   0.12000,
,,,00.000600000000,   0.12000,
,,,00.000800000000,   0.10400,
,,,00.001000000000,   0.08000,
,,,00.001200000000,   0.04000,
,,,00.001400000000,   0.00000,
,,,00.001600000000,  -0.03200,
,,,00.001800000000,  -0.07200,
,,,00.002000000000,  -0.13600,
,,,00.002200000000,  -0.18400,
,,,00.002400000000,  -0.21600,
,,,00.002600000000,  -0.20000,
,,,00.002800000000,  -0.17600,
,,,00.003000000000,  -0.13600,
,,,00.003200000000,  -0.12800,
,,,00.003400000000,  -0.12800,
,,,00.003600000000,  -0.14400,
,,,00.003800000000,  -0.15200,
,,,00.004000000000,  -0.15200,
,,,00.004200000000,  -0.13600,
,,,00.004400000000,  -0.08000,
,,,00.004600000000,  -0.03200,
,,,00.004800000000,   0.03200,
,,,00.005000000000,   0.08000,
,,,00.005200000000,   0.12800,
,,,00.005400000000,   0.17600,
,,,00.005600000000,   0.24000,
,,,00.005800000000,   0.32000,
,,,00.006000000000,   0.40000,
,,,00.006200000000,   0.45600,
,,,00.006400000000,   0.47200,
,,,00.006600000000,   0.44800,
,,,00.006800000000,   0.40000,
,,,00.007000000000,   0.37600,
,,,00.007200000000,   0.35200,
,,,00.007400000000,   0.32000,
,,,00.007600000000,   0.28800,
,,,00.007800000000,   0.21600,
,,,00.008000000000,   0.15200,
,,,00.008200000000,   0.06400,
,,,00.008400000000,  -0.02400,
,,,00.008600000000,  -0.11200,
,,,00.008800000000,  -0.19200,
,,,00.009000000000,  -0.26400,
,,,00.009200000000,  -0.32000,
,,,00.009400000000,  -0.35200,
,,,00.009600000000,  -0.36000,
,,,00.009800000000,  -0.35200,
,,,00.010000000000,  -0.34400,
,,,00.010200000000,  -0.34400,
,,,00.010400000000,  -0.33600,
,,,00.010600000000,  -0.33600,
,,,00.010800000000,  -0.33600,
,,,00.011000000000,  -0.32800,
,,,00.011200000000,  -0.30400,
,,,00.011400000000,  -0.27200,
,,,00.011600000000,  -0.21600,
,,,00.011800000000,  -0.14400,
,,,00.012000000000,  -0.07200,
,,,00.012200000000,  -0.00800,
,,,00.012400000000,   0.04800,
,,,00.012600000000,   0.09600,
,,,00.012800000000,   0.12800,
,,,00.013000000000,   0.16800,
,,,00.013200000000,   0.19200,
,,,00.013400000000,   0.20000,
,,,00.013600000000,   0.19200,
,,,00.013800000000,   0.16000,
,,,00.014000000000,   0.12800,
,,,00.014200000000,   0.08000,
,,,00.014400000000,   0.04000,
,,,00.014600000000,   0.00800,
,,,00.014800000000,  -0.01600,
,,,00.015000000000,  -0.04000,
,,,00.015200000000,  -0.05600,
,,,00.015400000000,  -0.07200,
,,,00.015600000000,  -0.08000,
,,,00.015800000000,  -0.08800,
,,,00.016000000000,  -0.08800,
,,,00.016200000000,  -0.09600,
,,,00.016400000000,  -0.08000,
,,,00.016600000000,  -0.05600,
,,,00.016800000000,  -0.02400,
,,,00.017000000000,   0.00800,
,,,00.017200000000,   0.03200,
,,,00.017400000000,   0.05600,
,,,00.017600000000,   0.07200,
,,,00.017800000000,   0.09600,
,,,00.018000000000,   0.11200,
,,,00.018200000000,   0.13600,
,,,00.018400000000,   0.16800,
,,,00.018600000000,   0.20000,
,,,00.018800000000,   0.22400,
,,,00.019000000000,   0.22400,
,,,00.019200000000,   0.20000,
,,,00.019400000000,   0.16800,
,,,00.019600000000,   0.12000,
,,,00.019800000000,   0.08000,
,,,00.020000000000,   0.03200,
,,,00.020200000000,  -0.01600,
,,,00.020400000000,  -0.04800,
,,,00.020600000000,  -0.09600,
,,,00.020800000000,  -0.13600,
,,,00.021000000000,  -0.17600,
,,,00.021200000000,  -0.22400,
,,,00.021400000000,  -0.25600,
,,,00.021600000000,  -0.28800,
,,,00.021800000000,  -0.30400,
,,,00.022000000000,  -0.28800,
,,,00.022200000000,  -0.26400,
,,,00.022400000000,  -0.23200,
,,,00.022600000000,  -0.18400,
,,,00.022800000000,  -0.12800,
,,,00.023000000000,  -0.07200,
,,,00.023200000000,  -0.01600,
,,,00.023400000000,   0.04000,
,,,00.023600000000,   0.10400,
,,,00.023800000000,   0.15200,
,,,00.024000000000,   0.19200,
,,,00.024200000000,   0.23200,
,,,00.024400000000,   0.26400,
,,,00.024600000000,   0.28000,
,,,00.024800000000,   0.28800,
,,,00.025000000000,   0.28000,
,,,00.025200000000,   0.28000,
,,,00.025400000000,   0.26400,
,,,00.025600000000,   0.24800,
,,,00.025800000000,   0.23200,
,,,00.026000000000,   0.20000,
,,,00.026200000000,   0.16800,
,,,00.026400000000,   0.11200,
,,,00.026600000000,   0.05600,
,,,00.026800000000,   0.00000,
,,,00.027000000000,  -0.05600,
,,,00.027200000000,  -0.11200,
,,,00.027400000000,  -0.16800,
,,,00.027600000000,  -0.20800,
,,,00.027800000000,  -0.24800,
,,,00.028000000000,  -0.28000,
,,,00.028200000000,  -0.31200,
,,,00.028400000000,  -0.33600,
,,,00.028600000000,  -0.36000,
,,,00.028800000000,  -0.36000,
,,,00.029000000000,  -0.36000,
,,,00.029200000000,  -0.33600,
,,,00.029400000000,  -0.31200,
,,,00.029600000000,  -0.27200,
,,,00.029800000000,  -0.23200,
,,,00.030000000000,  -0.17600,
,,,00.030200000000,  -0.13600,
,,,00.030400000000,  -0.08800,
,,,00.030600000000,  -0.05600,
,,,00.030800000000,  -0.02400,
,,,00.031000000000,   0.00800,
,,,00.031200000000,   0.03200,
,,,00.031400000000,   0.05600,
,,,00.031600000000,   0.09600,
,,,00.031800000000,   0.12800,
,,,00.032000000000,   0.15200,
,,,00.032200000000,   0.17600,
,,,00.032400000000,   0.19200,
,,,00.032600000000,   0.20000,
,,,00.032800000000,   0.20800,
,,,00.033000000000,   0.21600,
,,,00.033200000000,   0.21600,
,,,00.033400000000,   0.20800,
,,,00.033600000000,   0.20800,
,,,00.033800000000,   0.20800,
,,,00.034000000000,   0.21600,
,,,00.034200000000,   0.21600,
,,,00.034400000000,   0.20800,
,,,00.034600000000,   0.19200,
,,,00.034800000000,   0.17600,
,,,00.035000000000,   0.15200,
,,,00.035200000000,   0.12800,
,,,00.035400000000,   0.10400,
,,,00.035600000000,   0.07200,
,,,00.035800000000,   0.04000,
,,,00.036000000000,   0.01600,
,,,00.036200000000,  -0.01600,
,,,00.036400000000,  -0.04000,
,,,00.036600000000,  -0.08000,
,,,00.036800000000,  -0.12000,
,,,00.037000000000,  -0.16800,
,,,00.037200000000,  -0.20800,
,,,00.037400000000,  -0.24800,
,,,00.037600000000,  -0.28000,
,,,00.037800000000,  -0.31200,
,,,00.038000000000,  -0.32800,
,,,00.038200000000,  -0.32800,
,,,00.038400000000,  -0.32000,
,,,00.038600000000,  -0.29600,
,,,00.038800000000,  -0.26400,
,,,00.039000000000,  -0.22400,
,,,00.039200000000,  -0.17600,
,,,00.039400000000,  -0.12800,
,,,00.039600000000,  -0.08000,
,,,00.039800000000,  -0.01600,
,,,00.040000000000,   0.04800,
,,,00.040200000000,   0.10400,
,,,00.040400000000,   0.16800,
,,,00.040600000000,   0.21600,
,,,00.040800000000,   0.25600,
,,,00.041000000000,   0.29600,
,,,00.041200000000,   0.32000,
,,,00.041400000000,   0.32800,
,,,00.041600000000,   0.32800,
,,,00.041800000000,   0.32000,
,,,00.042000000000,   0.30400,
,,,00.042200000000,   0.27200,
,,,00.042400000000,   0.24000,
,,,00.042600000000,   0.20000,
,,,00.042800000000,   0.15200,
,,,00.043000000000,   0.10400,
,,,00.043200000000,   0.04800,
,,,00.043400000000,  -0.00800,
,,,00.043600000000,  -0.04800,
,,,00.043800000000,  -0.09600,
,,,00.044000000000,  -0.13600,
,,,00.044200000000,  -0.17600,
,,,00.044400000000,  -0.20800,
,,,00.044600000000,  -0.24000,
,,,00.044800000000,  -0.25600,
,,,00.045000000000,  -0.26400,
,,,00.045200000000,  -0.27200,
,,,00.045400000000,  -0.26400,
,,,00.045600000000,  -0.26400,
,,,00.045800000000,  -0.25600,
,,,00.046000000000,  -0.24000,
,,,00.046200000000,  -0.20800,
,,,00.046400000000,  -0.16800,
,,,00.046600000000,  -0.12800,
,,,00.046800000000,  -0.08800,
,,,00.047000000000,  -0.04800,
,,,00.047200000000,  -0.01600,
,,,00.047400000000,   0.01600,
,,,00.047600000000,   0.04800,
,,,00.047800000000,   0.08000,
,,,00.048000000000,   0.10400,
,,,00.048200000000,   0.13600,
,,,00.048400000000,   0.15200,
,,,00.048600000000,   0.17600,
,,,00.048800000000,   0.18400,
,,,00.049000000000,   0.19200,
,,,00.049200000000,   0.20000,
,,,00.049400000000,   0.19200,
,,,00.049600000000,   0.19200,
,,,00.049800000000,   0.19200,
,,,00.050000000000,   0.18400,
,,,00.050200000000,   0.16800,
,,,00.050400000000,   0.15200,
,,,00.050600000000,   0.12800,
,,,00.050800000000,   0.10400,
,,,00.051000000000,   0.08000,
,,,00.051200000000,   0.05600,
,,,00.051400000000,   0.03200,
,,,00.051600000000,   0.00800,
,,,00.051800000000,  -0.00800,
,,,00.052000000000,  -0.03200,
,,,00.052200000000,  -0.04800,
,,,00.052400000000,  -0.06400,
,,,00.052600000000,  -0.08000,
,,,00.052800000000,  -0.08800,
,,,00.053000000000,  -0.09600,
,,,00.053200000000,  -0.09600,
,,,00.053400000000,  -0.10400,
,,,00.053600000000,  -0.10400,
,,,00.053800000000,  -0.09600,
,,,00.054000000000,  -0.09600,
,,,00.054200000000,  -0.08800,
,,,00.054400000000,  -0.08000,
,,,00.054600000000,  -0.07200,
,,,00.054800000000,  -0.07200,
,,,00.055000000000,  -0.06400,
,,,00.055200000000,  -0.05600,
,,,00.055400000000,  -0.04000,
,,,00.055600000000,  -0.03200,
,,,00.055800000000,  -0.01600,
,,,00.056000000000,   0.00800,
,,,00.056200000000,   0.02400,
,,,00.056400000000,   0.03200,
,,,00.056600000000,   0.04800,
,,,00.056800000000,   0.04800,
,,,00.057000000000,   0.04800,
,,,00.057200000000,   0.04000,
,,,00.057400000000,   0.03200,
,,,00.057600000000,   0.03200,
,,,00.057800000000,   0.03200,
,,,00.058000000000,   0.03200,
,,,00.058200000000,   0.04000,
,,,00.058400000000,   0.04000,
,,,00.058600000000,   0.04000,
,,,00.058800000000,   0.04000,
,,,00.059000000000,   0.03200,
,,,00.059200000000,   0.03200,
,,,00.059400000000,   0.03200,
,,,00.059600000000,   0.02400,
,,,00.059800000000,   0.01600,
,,,00.060000000000,   0.00800,
,,,00.060200000000,  -0.00800,
,,,00.060400000000,  -0.01600,
,,,00.060600000000,  -0.02400,
,,,00.060800000000,  -0.03200,
,,,00.061000000000,  -0.03200,
,,,00.061200000000,  -0.03200,
,,,00.061400000000,  -0.04000,
,,,00.061600000000,  -0.04000,
,,,00.061800000000,  -0.04000,
,,,00.062000000000,  -0.04800,
,,,00.062200000000,  -0.04800,
,,,00.062400000000,  -0.04800,
,,,00.062600000000,  -0.04800,
,,,00.062800000000,  -0.04000,
,,,00.063000000000,  -0.04000,
,,,00.063200000000,  -0.04000,
,,,00.063400000000,  -0.03200,
,,,00.063600000000,  -0.02400,
,,,00.063800000000,  -0.02400,
,,,00.064000000000,  -0.02400,
,,,00.064200000000,  -0.01600,
,,,00.064400000000,  -0.01600,
,,,00.064600000000,  -0.01600,
,,,00.064800000000,  -0.00800,
,,,00.065000000000,   0.00800,
,,,00.065200000000,   0.01600,
,,,00.065400000000,   0.03200,
,,,00.065600000000,   0.04800,
,,,00.065800000000,   0.06400,
,,,00.066000000000,   0.08800,
,,,00.066200000000,   0.10400,
,,,00.066400000000,   0.11200,
,,,00.066600000000,   0.12000,
,,,00.066800000000,   0.12800,
,,,00.067000000000,   0.12800,
,,,00.067200000000,   0.12800,
,,,00.067400000000,   0.12800,
,,,00.067600000000,   0.12800,
,,,00.067800000000,   0.12800,
,,,00.068000000000,   0.12000,
,,,00.068200000000,   0.12000,
,,,00.068400000000,   0.10400,
,,,00.068600000000,   0.08800,
,,,00.068800000000,   0.07200,
,,,00.069000000000,   0.04000,
,,,00.069200000000,   0.00800,
,,,00.069400000000,  -0.02400,
,,,00.069600000000,  -0.05600,
,,,00.069800000000,  -0.09600,
,,,00.070000000000,  -0.12800,
,,,00.070200000000,  -0.15200,
,,,00.070400000000,  -0.17600,
,,,00.070600000000,  -0.20000,
,,,00.070800000000,  -0.21600,
,,,00.071000000000,  -0.21600,
,,,00.071200000000,  -0.21600,
,,,00.071400000000,  -0.20000,
,,,00.071600000000,  -0.17600,
,,,00.071800000000,  -0.15200,
,,,00.072000000000,  -0.12800,
,,,00.072200000000,  -0.09600,
,,,00.072400000000,  -0.05600,
,,,00.072600000000,  -0.02400,
,,,00.072800000000,   0.01600,
,,,00.073000000000,   0.04000,
,,,00.073200000000,   0.06400,
,,,00.073400000000,   0.09600,
,,,00.073600000000,   0.11200,
,,,00.073800000000,   0.12800,
,,,00.074000000000,   0.14400,
,,,00.074200000000,   0.15200,
,,,00.074400000000,   0.16800,
,,,00.074600000000,   0.16800,
,,,00.074800000000,   0.16800,
,,,00.075000000000,   0.16000,
