Data/HENN2012/TEK0000.CSV

Record Length,2.500000e+03,,  -0.100000000000,  -0.02400,
Sample Interval,4.000000e-04,,  -0.099600000000,  -0.02400,
Trigger Point,2.500000000000e+02,,  -0.099200000000,  -0.03200,
,,,  -0.098800000000,  -0.03200,
,,,  -0.098400000000,  -0.03200,
,,,  -0.098000000000,  -0.04000,
Source,CH1,,  -0.097600000000,  -0.04800,
Vertical Units,V,,  -0.097200000000,  -0.04800,
Vertical Scale,2.000000e-01,,  -0.096800000000,  -0.04800,
Vertical Offset,4.000000e-01,,  -0.096400000000,  -0.04000,
Horizontal Units,s,,  -0.096000000000,  -0.04000,
Horizontal Scale,1.000000e-01,,  -0.095600000000,  -0.03200,
Pt Fmt,Y,,  -0.095200000000,  -0.02400,
Yzero,0.000000e+00,,  -0.094800000000,  -0.02400,
Probe Atten,1.000000e+00,,  -0.094400000000,  -0.01600,
Model Number,TDS1012B,,  -0.094000000000,  -0.00800,
Serial Number,C054010,,  -0.093600000000,  -0.00800,
Firmware Version,FV:v22.01,,  -0.093200000000,   0.00800,
,,,-00.092800000000,   0.01600,
,,,-00.092400000000,   0.02400,
,,,-00.092000000000,   0.03200,
,,,-00.091600000000,   0.03200,
,,,-00.091200000000,   0.04000,
,,,-00.090800000000,   0.04000,
,,,-00.090400000000,   0.04800,
,,,-00.090000000000,   0.04800,
,,,-00.089600000000,   0.04800,
,,,-00.089200000000,   0.05600,
,,,-00.088800000000,   0.05600,
,,,-00.088400000000,   0.05600,
,,,-00.088000000000,   0.05600,
,,,-00.087600000000,   0.04800,
,,,-00.087200000000,   0.04000,
,,,-00.086800000000,   0.03200,
,,,-00.086400000000,   0.03200,
,,,-00.086000000000,   0.02400,
,,,-00.085600000000,   0.01600,
,,,-00.085200000000,   0.01600,
,,,-00.084800000000,   0.00800,
,,,-00.084400000000,   0.00000,
,,,-00.084000000000,  -0.00800,
,,,-00.083600000000,  -0.02400,
,,,-00.083200000000,  -0.02400,
,,,-00.082800000000,  -0.03200,
,,,-00.082400000000,  -0.03200,
,,,-00.082000000000,  -0.03200,
,,,-00.081600000000,  -0.04000,
,,,-00.081200000000,  -0.04000,
,,,-00.080800000000,  -0.04800,
,,,-00.080400000000,  -0.04800,
,,,-00.080000000000,  -0.04800,
,,,-00.079600000000,  -0.04800,
,,,-00.079200000000,  -0.04000,
,,,-00.078800000000,  -0.03200,
,,,-00.078400000000,  -0.02400,
,,,-00.078000000000,  -0.01600,
,,,-00.077600000000,  -0.01600,
,,,-00.077200000000,  -0.00800,
,,,-00.076800000000,   0.00000,
,,,-00.076400000000,   0.00800,
,,,-00.076000000000,   0.01600,
,,,-00.075600000000,   0.02400,
,,,-00.075200000000,   0.03200,
,,,-00.074800000000,   0.04000,
,,,-00.074400000000,   0.04800,
,,,-00.074000000000,   0.04800,
,,,-00.073600000000,   0.04800,
,,,-00.073200000000,   0.04800,
,,,-00.072800000000,   0.04800,
,,,-00.072400000000,   0.05600,
,,,-00.072000000000,   0.05600,
,,,-00.071600000000,   0.05600,
,,,-00.071200000000,   0.05600,
,,,-00.070800000000,   0.04800,
,,,-00.070400000000,   0.03200,
,,,-00.070000000000,   0.03200,
,,,-00.069600000000,   0.03200,
,,,-00.069200000000,   0.02400,
,,,-00.068800000000,   0.01600,
,,,-00.068400000000,   0.00800,
,,,-00.068000000000,   0.00800,
,,,-00.067600000000,  -0.00800,
,,,-00.067200000000,  -0.01600,
,,,-00.066800000000,  -0.02400,
,,,-00.066400000000,  -0.02400,
,,,-00.066000000000,  -0.02400,
,,,-00.065600000000,  -0.02400,
,,,-00.065200000000,  -0.03200,
,,,-00.064800000000,  -0.04000,
,,,-00.064400000000,  -0.04000,
,,,-00.064000000000,  -0.04800,
,,,-00.063600000000,  -0.04800,
,,,-00.063200000000,  -0.04800,
,,,-00.062800000000,  -0.04800,
,,,-00.062400000000,  -0.04000,
,,,-00.062000000000,  -0.02400,
,,,-00.061600000000,  -0.02400,
,,,-00.061200000000,  -0.01600,
,,,-00.060800000000,  -0.01600,
,,,-00.060400000000,  -0.00800,
,,,-00.060000000000,   0.00000,
,,,-00.059600000000,   0.01600,
,,,-00.059200000000,   0.02400,
,,,-00.058800000000,   0.03200,
,,,-00.058400000000,   0.04000,
,,,-00.058000000000,   0.04000,
,,,-00.057600000000,   0.04000,
,,,-00.057200000000,   0.04000,
,,,-00.056800000000,   0.04800,
,,,-00.056400000000,   0.04800,
,,,-00.056000000000,   0.05600,
,,,-00.055600000000,   0.05600,
,,,-00.055200000000,   0.05600,
,,,-00.054800000000,   0.05600,
,,,-00.054400000000,   0.04800,
,,,-00.054000000000,   0.04000,
,,,-00.053600000000,   0.04000,
,,,-00.053200000000,   0.03200,
,,,-00.052800000000,   0.02400,
,,,-00.052400000000,   0.01600,
,,,-00.052000000000,   0.01600,
,,,-00.051600000000,   0.00800,
,,,-00.051200000000,   0.00000,
,,,-00.050800000000,  -0.00800,
,,,-00.050400000000,  -0.01600,
,,,-00.050000000000,  -0.01600,
,,,-00.049600000000,  -0.02400,
,,,-00.049200000000,  -0.03200,
,,,-00.048800000000,  -0.02400,
,,,-00.048400000000,  -0.03200,
,,,-00.048000000000,  -0.04000,
,,,-00.047600000000,  -0.04800,
,,,-00.047200000000,  -0.04800,
,,,-00.046800000000,  -0.04800,
,,,-00.046400000000,  -0.04800,
,,,-00.046000000000,  -0.04000,
,,,-00.045600000000,  -0.03200,
,,,-00.045200000000,  -0.02400,
,,,-00.044800000000,  -0.02400,
,,,-00.044400000000,  -0.01600,
,,,-00.044000000000,  -0.00800,
,,,-00.043600000000,   0.00000,
,,,-00.043200000000,   0.00000,
,,,-00.042800000000,   0.01600,
,,,-00.042400000000,   0.02400,
,,,-00.042000000000,   0.03200,
,,,-00.041600000000,   0.04000,
,,,-00.041200000000,   0.04000,
,,,-00.040800000000,   0.04800,
,,,-00.040400000000,   0.04800,
,,,-00.040000000000,   0.04800,
,,,-00.039600000000,   0.05600,
,,,-00.039200000000,   0.05600,
,,,-00.038800000000,   0.05600,
,,,-00.038400000000,   0.05600,
,,,-00.038000000000,   0.04800,
,,,-00.037600000000,   0.04800,
,,,-00.037200000000,   0.04800,
,,,-00.036800000000,   0.04000,
,,,-00.036400000000,   0.03200,
,,,-00.036000000000,   0.02400,
,,,-00.035600000000,   0.02400,
,,,-00.035200000000,   0.01600,
,,,-00.034800000000,   0.00800,
,,,-00.034400000000,   0.00000,
,,,-00.034000000000,  -0.00800,
,,,-00.033600000000,  -0.01600,
,,,-00.033200000000,  -0.02400,
,,,-00.032800000000,  -0.03200,
,,,-00.032400000000,  -0.03200,
,,,-00.032000000000,  -0.03200,
,,,-00.031600000000,  -0.03200,
,,,-00.031200000000,  -0.04000,
,,,-00.030800000000,  -0.04800,
,,,-00.030400000000,  -0.04800,
,,,-00.030000000000,  -0.04800,
,,,-00.029600000000,  -0.04800,
,,,-00.029200000000,  -0.04000,
,,,-00.028800000000,  -0.03200,
,,,-00.028400000000,  -0.02400,
,,,-00.028000000000,  -0.02400,
,,,-00.027600000000,  -0.01600,
,,,-00.027200000000,   0.00000,
,,,-00.026800000000,   0.00000,
,,,-00.026400000000,   0.00800,
,,,-00.026000000000,   0.01600,
,,,-00.025600000000,   0.02400,
,,,-00.025200000000,   0.03200,
,,,-00.024800000000,   0.04000,
,,,-00.024400000000,   0.04800,
,,,-00.024000000000,   0.04800,
,,,-00.023600000000,   0.04800,
,,,-00.023200000000,   0.04800,
,,,-00.022800000000,   0.05600,
,,,-00.022400000000,   0.05600,
,,,-00.022000000000,   0.05600,
,,,-00.021600000000,   0.05600,
,,,-00.021200000000,   0.05600,
,,,-00.020800000000,   0.04800,
,,,-00.020400000000,   0.04000,
,,,-00.020000000000,   0.03200,
,,,-00.019600000000,   0.03200,
,,,-00.019200000000,   0.02400,
,,,-00.018800000000,   0.01600,
,,,-00.018400000000,   0.01600,
,,,-00.018000000000,   0.00000,
,,,-00.017600000000,  -0.00800,
,,,-00.017200000000,  -0.01600,
,,,-00.016800000000,  -0.01600,
,,,-00.016400000000,  -0.02400,
,,,-00.016000000000,  -0.03200,
,,,-00.015600000000,  -0.03200,
,,,-00.015200000000,  -0.03200,
,,,-00.014800000000,  -0.04000,
,,,-00.014400000000,  -0.04800,
,,,-00.014000000000,  -0.04800,
,,,-00.013600000000,  -0.04800,
,,,-00.013200000000,  -0.04000,
,,,-00.012800000000,  -0.04000,
,,,-00.012400000000,  -0.04000,
,,,-00.012000000000,  -0.02400,
,,,-00.011600000000,  -0.02400,
,,,-00.011200000000,  -0.02400,
,,,-00.010800000000,  -0.01600,
,,,-00.010400000000,  -0.00800,
,,,-00.010000000000,   0.00000,
,,,-00.009600000000,   0.00800,
,,,-00.009200000000,   0.01600,
,,,-00.008800000000,   0.02400,
,,,-00.008400000000,   0.03200,
,,,-00.008000000000,   0.04000,
,,,-00.007600000000,   0.04000,
,,,-00.007200000000,   0.04800,
,,,-00.006800000000,   0.04800,
,,,-00.006400000000,   0.04800,
,,,-00.006000000000,   0.05600,
,,,-00.005600000000,   0.05600,
,,,-00.005200000000,   0.05600,
,,,-00.004800000000,   0.05600,
,,,-00.004400000000,   0.05600,
,,,-00.004000000000,   0.04800,
,,,-00.003600000000,   0.03200,
,,,-00.003200000000,   0.03200,
,,,-00.002800000000,   0.02400,
,,,-00.002400000000,   0.02400,
,,,-00.002000000000,   0.01600,
,,,-00.001600000000,   0.00800,
,,,-00.001200000000,   0.00000,
,,,-00.000800000000,  -0.00800,
,,,-00.000400000000,  -0.01600,
,,,-00.000000000000,   0.27200,
,,,00.000400000000,  -0.50400,
,,,00.000800000000,  -1.41600,
,,,00.001200000000,  -1.19200,
,,,00.001600000000,  -0.40000,
,,,00.002000000000,   0.24000,
,,,00.002400000000,   0.55200,
,,,00.002800000000,   0.61600,
,,,00.003200000000,   0.59200,
,,,00.003600000000,   0.48000,
,,,00.004000000000,   0.20000,
,,,00.004400000000,   0.18400,
,,,00.004800000000,   0.51200,
,,,00.005200000000,   0.58400,
,,,00.005600000000,   0.53600,
,,,00.006000000000,   0.17600,
,,,00.006400000000,  -0.36800,
,,,00.006800000000,  -0.38400,
,,,00.007200000000,  -0.01600,
,,,00.007600000000,   0.20800,
,,,00.008000000000,   0.20000,
,,,00.008400000000,   0.10400,
,,,00.008800000000,  -0.02400,
,,,00.009200000000,  -0.20800,
,,,00.009600000000,  -0.42400,
,,,00.010000000000,  -0.60000,
,,,00.010400000000,  -0.59200,
,,,00.010800000000,  -0.52800,
,,,00.011200000000,  -0.37600,
,,,00.011600000000,  -0.15200,
,,,00.012000000000,   0.08800,
,,,00.012400000000,   0.21600,
,,,00.012800000000,   0.20000,
,,,00.013200000000,   0.18400,
,,,00.013600000000,   0.24800,
,,,00.014000000000,   0.32000,
,,,00.014400000000,   0.32000,
,,,00.014800000000,   0.28800,
,,,00.015200000000,   0.29600,
,,,00.015600000000,   0.29600,
,,,00.016000000000,   0.26400,
,,,00.016400000000,   0.24000,
,,,00.016800000000,   0.17600,
,,,00.017200000000,   0.09600,
,,,00.017600000000,  -0.01600,
,,,00.018000000000,  -0.11200,
,,,00.018400000000,  -0.14400,
,,,00.018800000000,  -0.14400,
,,,00.019200000000,  -0.16000,
,,,00.019600000000,  -0.18400,
,,,00.020000000000,  -0.20000,
,,,00.020400000000,  -0.20800,
,,,00.020800000000,  -0.20000,
,,,00.021200000000,  -0.19200,
,,,00.021600000000,  -0.16800,
,,,00.022000000000,  -0.16000,
,,,00.022400000000,  -0.16800,
,,,00.022800000000,  -0.16000,
,,,00.023200000000,  -0.12000,
,,,00.023600000000,  -0.08000,
,,,00.024000000000,  -0.04800,
,,,00.024400000000,  -0.01600,
,,,00.024800000000,   0.01600,
,,,00.025200000000,   0.07200,
,,,00.025600000000,   0.14400,
,,,00.026000000000,   0.20800,
,,,00.026400000000,   0.21600,
,,,00.026800000000,   0.17600,
,,,00.027200000000,   0.13600,
,,,00.027600000000,   0.12000,
,,,00.028000000000,   0.14400,
,,,00.028400000000,   0.20800,
,,,00.028800000000,   0.28800,
,,,00.029200000000,   0.32000,
,,,00.029600000000,   0.29600,
,,,00.030000000000,   0.21600,
,,,00.030400000000,   0.08800,
,,,00.030800000000,  -0.05600,
,,,00.031200000000,  -0.19200,
,,,00.031600000000,  -0.29600,
,,,00.032000000000,  -0.34400,
,,,00.032400000000,  -0.32800,
,,,00.032800000000,  -0.26400,
,,,00.033200000000,  -0.16800,
,,,00.033600000000,  -0.08000,
,,,00.034000000000,  -0.01600,
,,,00.034400000000,  -0.00800,
,,,00.034800000000,  -0.01600,
,,,00.035200000000,  -0.02400,
,,,00.035600000000,  -0.00800,
,,,00.036000000000,   0.02400,
,,,00.036400000000,   0.05600,
,,,00.036800000000,   0.06400,
,,,00.037200000000,   0.05600,
,,,00.037600000000,   0.03200,
,,,00.038000000000,   0.02400,
,,,00.038400000000,   0.02400,
,,,00.038800000000,   0.04800,
,,,00.039200000000,   0.05600,
,,,00.039600000000,   0.07200,
,,,00.040000000000,   0.06400,
,,,00.040400000000,   0.05600,
,,,00.040800000000,   0.05600,
,,,00.041200000000,   0.04000,
,,,00.041600000000,   0.02400,
,,,00.042000000000,   0.01600,
,,,00.042400000000,   0.03200,
,,,00.042800000000,   0.05600,
,,,00.043200000000,   0.06400,
,,,00.043600000000,   0.05600,
,,,00.044000000000,   0.04800,
,,,00.044400000000,   0.03200,
,,,00.044800000000,   0.00800,
,,,00.045200000000,  -0.01600,
,,,00.045600000000,  -0.04000,
,,,00.046000000000,  -0.07200,
,,,00.046400000000,  -0.08800,
,,,00.046800000000,  -0.07200,
,,,00.047200000000,  -0.04000,
,,,00.047600000000,   0.00000,
,,,00.048000000000,   0.03200,
,,,00.048400000000,   0.05600,
,,,00.048800000000,   0.05600,
,,,00.049200000000,   0.05600,
,,,00.049600000000,   0.04800,
,,,00.050000000000,   0.05600,
,,,00.050400000000,   0.06400,
,,,00.050800000000,   0.08000,
,,,00.051200000000,   0.08000,
,,,00.051600000000,   0.07200,
,,,00.052000000000,   0.04800,
,,,00.052400000000,  -0.00800,
,,,00.052800000000,  -0.04800,
,,,00.053200000000,  -0.08000,
,,,00.053600000000,  -0.09600,
,,,00.054000000000,  -0.08800,
,,,00.054400000000,  -0.07200,
,,,00.054800000000,  -0.06400,
,,,00.055200000000,  -0.05600,
,,,00.055600000000,  -0.06400,
,,,00.056000000000,  -0.07200,
,,,00.056400000000,  -0.08000,
,,,00.056800000000,  -0.07200,
,,,00.057200000000,  -0.05600,
,,,00.057600000000,  -0.04000,
,,,00.058000000000,  -0.02400,
,,,00.058400000000,  -0.00800,
,,,00.058800000000,   0.01600,
,,,00.059200000000,   0.03200,
,,,00.059600000000,   0.04800,
,,,00.060000000000,   0.07200,
,,,00.060400000000,   0.08000,
,,,00.060800000000,   0.09600,
,,,00.061200000000,   0.10400,
,,,00.061600000000,   0.11200,
,,,00.062000000000,   0.10400,
,,,00.062400000000,   0.09600,
,,,00.062800000000,   0.08800,
,,,00.063200000000,   0.07200,
,,,00.063600000000,   0.08000,
,,,00.064000000000,   0.07200,
,,,00.064400000000,   0.07200,
,,,00.064800000000,   0.07200,
,,,00.065200000000,   0.05600,
,,,00.065600000000,   0.04000,
,,,00.066000000000,   0.01600,
,,,00.066400000000,  -0.01600,
,,,00.066800000000,  -0.04800,
,,,00.067200000000,  -0.08800,
,,,00.067600000000,  -0.11200,
,,,00.068000000000,  -0.13600,
,,,00.068400000000,  -0.14400,
,,,00.068800000000,  -0.15200,
,,,00.069200000000,  -0.14400,
,,,00.069600000000,  -0.12800,
,,,00.070000000000,  -0.11200,
,,,00.070400000000,  -0.08800,
,,,00.070800000000,  -0.07200,
,,,00.071200000000,  -0.04800,
,,,00.071600000000,  -0.02400,
,,,00.072000000000,   0.01600,
,,,00.072400000000,   0.04000,
,,,00.072800000000,   0.06400,
,,,00.073200000000,   0.08800,
,,,00.073600000000,   0.09600,
,,,00.074000000000,   0.09600,
,,,00.074400000000,   0.08800,
,,,00.074800000000,   0.07200,
,,,00.075200000000,   0.06400,
,,,00.075600000000,   0.05600,
,,,00.076000000000,   0.04800,
,,,00.076400000000,   0.04800,
,,,00.076800000000,   0.04000,
,,,00.077200000000,   0.03200,
,,,00.077600000000,   0.01600,
,,,00.078000000000,   0.00000,
,,,00.078400000000,  -0.00800,
,,,00.078800000000,  -0.00800,
,,,00.079200000000,  -0.02400,
,,,00.079600000000,  -0.02400,
,,,00.080000000000,  -0.02400,
,,,00.080400000000,  -0.02400,
,,,00.080800000000,  -0.01600,
,,,00.081200000000,  -0.00800,
,,,00.081600000000,   0.00000,
,,,00.082000000000,  -0.00800,
,,,00.082400000000,  -0.00800,
,,,00.082800000000,  -0.02400,
,,,00.083200000000,  -0.03200,
,,,00.083600000000,  -0.04000,
,,,00.084000000000,  -0.04000,
,,,00.084400000000,  -0.03200,
,,,00.084800000000,  -0.03200,
,,,00.085200000000,  -0.02400,
,,,00.085600000000,  -0.02400,
,,,00.086000000000,  -0.02400,
,,,00.086400000000,  -0.02400,
,,,00.086800000000,  -0.02400,
,,,00.087200000000,  -0.01600,
,,,00.087600000000,  -0.00800,
,,,00.088000000000,  -0.00800,
,,,00.088400000000,  -0.00800,
,,,00.088800000000,  -0.00800,
,,,00.089200000000,   0.00000,
,,,00.089600000000,   0.00000,
,,,00.090000000000,   0.00800,
,,,00.090400000000,   0.00800,
,,,00.090800000000,   0.00800,
,,,00.091200000000,   0.01600,
,,,00.091600000000,   0.01600,
,,,00.092000000000,   0.00000,
,,,00.092400000000,   0.00000,
,,,00.092800000000,   0.00000,
,,,00.093200000000,   0.00800,
,,,00.093600000000,   0.02400,
,,,00.094000000000,   0.03200,
,,,00.094400000000,   0.03200,
,,,00.094800000000,   0.04800,
,,,00.095200000000,   0.04800,
,,,00.095600000000,   0.05600,
,,,00.096000000000,   0.06400,
,,,00.096400000000,   0.05600,
,,,00.096800000000,   0.05600,
,,,00.097200000000,   0.04800,
,,,00.097600000000,   0.04000,
,,,00.098000000000,   0.04000,
,,,00.098400000000,   0.03200,
,,,00.098800000000,   0.00800,
,,,00.099200000000,   0.00000,
,,,00.099600000000,  -0.02400,
,,,00.100000000000,  -0.03200,
,,,00.100400000000,  -0.04800,
,,,00.100800000000,  -0.04800,
,,,00.101200000000,  -0.05600,
,,,00.101600000000,  -0.06400,
,,,00.102000000000,  -0.06400,
,,,00.102400000000,  -0.07200,
,,,00.102800000000,  -0.07200,
,,,00.103200000000,  -0.06400,
,,,00.103600000000,  -0.06400,
,,,00.104000000000,  -0.05600,
,,,00.104400000000,  -0.04800,
,,,00.104800000000,  -0.04800,
,,,00.105200000000,  -0.03200,
,,,00.105600000000,  -0.02400,
,,,00.106000000000,  -0.01600,
,,,00.106400000000,  -0.00800,
,,,00.106800000000,   0.00800,
,,,00.107200000000,   0.01600,
,,,00.107600000000,   0.03200,
,,,00.108000000000,   0.04000,
,,,00.108400000000,   0.04800,
,,,00.108800000000,   0.04800,
,,,00.109200000000,   0.05600,
,,,00.109600000000,   0.05600,
,,,00.110000000000,   0.05600,
,,,00.110400000000,   0.06400,
,,,00.110800000000,   0.06400,
,,,00.111200000000,   0.06400,
,,,00.111600000000,   0.05600,
,,,00.112000000000,   0.04800,
,,,00.112400000000,   0.03200,
,,,00.112800000000,   0.02400,
,,,00.113200000000,   0.01600,
,,,00.113600000000,   0.00800,
,,,00.114000000000,  -0.00800,
,,,00.114400000000,  -0.00800,
,,,00.114800000000,  -0.01600,
,,,00.115200000000,  -0.01600,
,,,00.115600000000,  -0.02400,
,,,00.116000000000,  -0.02400,
,,,00.116400000000,  -0.03200,
,,,00.116800000000,  -0.04000,
,,,00.117200000000,  -0.03200,
,,,00.117600000000,  -0.02400,
,,,00.118000000000,  -0.02400,
,,,00.118400000000,  -0.03200,
,,,00.118800000000,  -0.03200,
,,,00.119200000000,  -0.02400,
,,,00.119600000000,  -0.02400,
,,,00.120000000000,  -0.01600,
,,,00.120400000000,  -0.01600,
,,,00.120800000000,  -0.01600,
,,,00.121200000000,  -0.01600,
,,,00.121600000000,  -0.01600,
,,,00.122000000000,  -0.00800,
,,,00.122400000000,  -0.00800,
,,,00.122800000000,  -0.00800,
,,,00.123200000000,   0.00000,
,,,00.123600000000,   0.00000,
,,,00.124000000000,   0.00800,
,,,00.124400000000,   0.01600,
,,,00.124800000000,   0.01600,
,,,00.125200000000,   0.01600,
,,,00.125600000000,   0.01600,
,,,00.126000000000,   0.03200,
,,,00.126400000000,   0.03200,
,,,00.126800000000,   0.04000,
,,,00.127200000000,   0.04800,
,,,00.127600000000,   0.05600,
,,,00.128000000000,   0.05600,
,,,00.128400000000,   0.05600,
,,,00.128800000000,   0.05600,
,,,00.129200000000,   0.04800,
,,,00.129600000000,   0.04800,
,,,00.130000000000,   0.04000,
,,,00.130400000000,   0.04000,
,,,00.130800000000,   0.04000,
,,,00.131200000000,   0.04000,
,,,00.131600000000,   0.02400,
,,,00.132000000000,   0.01600,
,,,00.132400000000,   0.00800,
,,,00.132800000000,   0.00000,
,,,00.133200000000,  -0.00800,
,,,00.133600000000,  -0.01600,
,,,00.134000000000,  -0.02400,
,,,00.134400000000,  -0.02400,
,,,00.134800000000,  -0.03200,
,,,00.135200000000,  -0.04000,
,,,00.135600000000,  -0.05600,
,,,00.136000000000,  -0.05600,
,,,00.136400000000,  -0.05600,
,,,00.136800000000,  -0.06400,
,,,00.137200000000,  -0.05600,
,,,00.137600000000,  -0.04800,
,,,00.138000000000,  -0.04000,
,,,00.138400000000,  -0.02400,
,,,00.138800000000,  -0.02400,
,,,00.139200000000,  -0.00800,
,,,00.139600000000,  -0.00800,
,,,00.140000000000,   0.00000,
,,,00.140400000000,   0.01600,
,,,00.140800000000,   0.02400,
,,,00.141200000000,   0.04000,
,,,00.141600000000,   0.04800,
,,,00.142000000000,   0.05600,
,,,00.142400000000,   0.05600,
,,,00.142800000000,   0.06400,
,,,00.143200000000,   0.07200,
,,,00.143600000000,   0.07200,
,,,00.144000000000,   0.07200,
,,,00.144400000000,   0.07200,
,,,00.144800000000,   0.07200,
,,,00.145200000000,   0.07200,
,,,00.145600000000,   0.06400,
,,,00.146000000000,   0.05600,
,,,00.146400000000,   0.04800,
,,,00.146800000000,   0.03200,
,,,00.147200000000,   0.02400,
,,,00.147600000000,   0.00800,
,,,00.148000000000,   0.00000,
,,,00.148400000000,  -0.00800,
,,,00.148800000000,  -0.02400,
,,,00.149200000000,  -0.02400,
,,,00.149600000000,  -0.03200,
,,,00.150000000000,  -0.03200,
